905,2.9964,0
906,3.0004,0.004
907,3.0134,0.013
908,3.0244,0.011
909,3.0044,-0.02
910,3.0134,0.009
911,3.0294,0.016
912,3.0434,0.014
913,3.0454,0.002
914,3.0384,-0.007
915,3.0184,-0.02
916,2.9924,-0.026
917,2.9924,0
918,2.9964,0.004
919,2.9664,-0.03
920,2.9714,0.005
921,2.9564,-0.015
922,2.9134,-0.043
923,2.9234,0.01
924,2.8914,-0.032
925,2.9184,0.027
926,2.9304,0.012
927,2.9354,0.005
928,2.9114,-0.024
929,2.9234,0.012
930,2.9234,0
931,2.8974,-0.026
932,2.8484,-0.049
933,2.8514,0.003
934,2.8624,0.011
935,2.8964,0.034
936,2.8984,0.002
937,2.9044,0.006
938,2.9174,0.013
939,2.9234,0.006
940,2.9174,-0.006
941,2.9304,0.013
942,2.9394,0.009
943,2.9414,0.002
944,2.9294,-0.012
945,2.9414,0.012
946,2.9184,-0.023
947,2.9184,0
948,2.9014,-0.017
949,2.8884,-0.013
950,2.8934,0.005
951,2.8894,-0.004
952,2.8714,-0.018
953,2.8714,0
954,2.8774,0.006
955,2.9074,0.03
956,2.9044,-0.003
957,2.9134,0.009
958,2.9184,0.005
959,2.9214,0.003
960,2.9214,0
961,2.9374,0.016
962,2.9454,0.008
963,2.9444,-0.001
964,2.9394,-0.005
965,2.9524,0.013
966,2.9524,0
967,2.9304,-0.022
968,2.9324,0.002
969,2.9134,-0.019
970,2.9204,0.007
971,2.9464,0.026
972,2.9564,0.01
973,2.9614,0.005
974,2.9644,0.003
975,2.9704,0.006
976,2.9734,0.003
977,2.9744,0.001
978,2.9714,-0.003
979,2.9724,0.001
980,2.9764,0.004
981,3.0014,0.025
982,3.0034,0.002
983,3.0034,0
984,3.0074,0.004
985,3.0044,-0.003
986,3.0124,0.008
987,2.9854,-0.027
988,3.0064,0.021
989,2.9694,-0.037
990,2.9424,-0.027
991,2.9774,0.035
992,2.9904,0.013
993,2.9994,0.009
994,2.9974,-0.002
995,3.0124,0.015
996,3.0194,0.007
997,3.0074,-0.012
998,2.9884,-0.019
999,2.9944,0.006
1000,2.9934,-0.001
1001,3.0044,0.011
1002,2.9964,-0.008
1003,2.9904,-0.006
1004,2.9694,-0.021
1005,2.9464,-0.023
1006,2.9474,0.001
1007,2.9234,-0.024
1008,2.9314,0.008
1009,2.9584,0.027
1010,2.9544,-0.004
1011,2.9684,0.014
1012,2.9744,0.006
1013,2.9894,0.015
1014,2.9944,0.005
1015,2.9824,-0.012
1016,2.9904,0.008
1017,2.9844,-0.006
1018,2.9664,-0.018
1019,2.9684,0.002
1020,2.9674,-0.001
1021,2.9814,0.014
1022,2.9514,-0.03
1023,2.9634,0.012
1024,2.9674,0.004
1025,2.9724,0.005
1026,2.9744,0.002
1027,2.9454,-0.029
1028,2.9484,0.003
1029,2.9374,-0.011
1030,2.9264,-0.011
1031,2.9044,-0.022
1032,2.8924,-0.012
1033,2.8944,0.002
1034,2.8934,-0.001
1035,2.8804,-0.013
1036,2.8794,-0.001
1037,2.9024,0.023
1038,2.8984,-0.004
1039,2.8804,-0.018
1040,2.8804,0
1041,2.8854,0.005
1042,2.8974,0.012
1043,2.8994,0.002
1044,2.9074,0.008
1045,2.9024,-0.005
1046,2.8924,-0.01
1047,2.9044,0.012
1048,2.9174,0.013
1049,2.9144,-0.003
1050,2.9254,0.011
1051,2.9214,-0.004
1052,2.9284,0.007
1053,2.9054,-0.023
1054,2.9084,0.003
1055,2.9154,0.007
1056,2.9214,0.006
1057,2.9144,-0.007
1058,2.9134,-0.001
1059,2.9014,-0.012
1060,2.8874,-0.014
1061,2.8934,0.006
1062,2.9114,0.018
1063,2.9104,-0.001
1064,2.9174,0.007
1065,2.9194,0.002
1066,2.9124,-0.007
1067,2.9124,0
1068,2.9004,-0.012
1069,2.9124,0.012
1070,2.9344,0.022
1071,2.9364,0.002
1072,2.9304,-0.006
1073,2.9434,0.013
1074,2.9474,0.004
1075,2.9464,-0.001
1076,2.9414,-0.005
1077,2.9304,-0.011
1078,2.9394,0.009
1079,2.9314,-0.008
1080,2.9424,0.011
1081,2.9454,0.003
1082,2.9434,-0.002
1083,2.9324,-0.011
1084,2.8834,-0.049
1085,2.8814,-0.002
1086,2.8984,0.017
1087,2.8884,-0.01
1088,2.8854,-0.003
1089,2.8814,-0.004
1090,2.8634,-0.018
1091,2.8604,-0.003
1092,2.8504,-0.01
1093,2.8534,0.003
1094,2.8424,-0.011
1095,2.8484,0.006
1096,2.8114,-0.037
1097,2.7954,-0.016
1098,2.8004,0.005
1099,2.7854,-0.015
1100,2.7904,0.005
1101,2.8084,0.018
1102,2.8034,-0.005
1103,2.7624,-0.041
1104,2.7784,0.016
1105,2.7754,-0.003
1106,2.7664,-0.009
1107,2.7774,0.011
1108,2.8054,0.028
1109,2.7894,-0.016
1110,2.7894,0
1111,2.8024,0.013
1112,2.7994,-0.003
1113,2.7794,-0.02
1114,2.7714,-0.008
1115,2.7754,0.004
1116,2.7694,-0.006
1117,2.7714,0.002
1118,2.7584,-0.013
1119,2.7604,0.002
1120,2.7824,0.022
1121,2.7744,-0.008
1122,2.7764,0.002
1123,2.7714,-0.005
1124,2.7594,-0.012
1125,2.7824,0.023
1126,2.7824,0
1127,2.7754,-0.007
1128,2.7754,0
1129,2.7704,-0.005
1130,2.7644,-0.006
1131,2.7314,-0.033
1132,2.7234,-0.008
1133,2.7144,-0.009
1134,2.7164,0.002
1135,2.7104,-0.006
1136,2.7244,0.014
1137,2.7294,0.005
1138,2.7284,-0.001
1139,2.7474,0.019
1140,2.7554,0.008
1141,2.7444,-0.011
1142,2.7494,0.005
1143,2.7374,-0.012
1144,2.7404,0.003
1145,2.7584,0.018
1146,2.7754,0.017
1147,2.7764,0.001
1148,2.7864,0.01
1149,2.7894,0.003
1150,2.7944,0.005
1151,2.7904,-0.004
1152,2.8084,0.018
1153,2.8124,0.004
1154,2.8104,-0.002
1155,2.8234,0.013
1156,2.8094,-0.014
1157,2.8124,0.003
1158,2.8054,-0.007
1159,2.8194,0.014
1160,2.8244,0.005
1161,2.8014,-0.023
1162,2.8064,0.005
1163,2.7974,-0.009
1164,2.8084,0.011
1165,2.8264,0.018
1166,2.8314,0.005
1167,2.8304,-0.001
1168,2.8354,0.005
1169,2.8194,-0.016
1170,2.8194,0
1171,2.8234,0.004
1172,2.8044,-0.019
1173,2.8064,0.002
1174,2.8094,0.003
1175,2.8244,0.015
1176,2.8214,-0.003
1177,2.8164,-0.005
1178,2.8254,0.009
1179,2.8254,0
1180,2.8404,0.015
1181,2.8424,0.002
1182,2.8414,-0.001
1183,2.8274,-0.014
1184,2.8284,0.001
1185,2.8364,0.008
1186,2.8374,0.001
1187,2.8234,-0.014
1188,2.8084,-0.015
1189,2.8094,0.001
1190,2.8064,-0.003
1191,2.8084,0.002
1192,2.8214,0.013
1193,2.8144,-0.007
1194,2.8134,-0.001
1195,2.8304,0.017
1196,2.8594,0.029
1197,2.8834,0.024
1198,2.8934,0.01
1199,2.9054,0.012
1200,2.9064,0.001
1201,2.9334,0.027
1202,2.9284,-0.005
1203,2.9474,0.019
1204,2.9524,0.005
1205,2.9464,-0.006
1206,2.9474,0.001
1207,2.9754,0.028
1208,2.9714,-0.004
1209,2.9554,-0.016
1210,2.9544,-0.001
1211,2.9494,-0.005
1212,2.9744,0.025
1213,2.9724,-0.002
1214,2.9604,-0.012
1215,2.9764,0.016
1216,2.9864,0.01
1217,2.9944,0.008
1218,2.9874,-0.007
1219,2.9814,-0.006
1220,2.9834,0.002
1221,2.9254,-0.058
1222,2.9304,0.005
1223,2.8904,-0.04
1224,2.8724,-0.018
1225,2.8844,0.012
1226,2.8924,0.008
1227,2.8904,-0.002
1228,2.8734,-0.017
1229,2.8934,0.02
1230,2.9064,0.013
1231,2.8984,-0.008
1232,2.8964,-0.002
1233,2.8824,-0.014
1234,2.8814,-0.001
1235,2.8864,0.005
1236,2.8874,0.001
1237,2.8904,0.003
1238,2.8994,0.009
1239,2.8924,-0.007
1240,2.8794,-0.013
1241,2.8894,0.01
1242,2.9154,0.026
1243,2.9184,0.003
1244,2.9124,-0.006
1245,2.9074,-0.005
1246,2.9064,-0.001
1247,2.8934,-0.013
1248,2.9124,0.019
1249,2.9034,-0.009
1250,2.8964,-0.007
1251,2.8894,-0.007
1252,2.8724,-0.017
1253,2.8574,-0.015
1254,2.8624,0.005
1255,2.8624,0
1256,2.8794,0.017
1257,2.8964,0.017
1258,2.8924,-0.004
1259,2.8884,-0.004
1260,2.8904,0.002
1261,2.8744,-0.016
1262,2.8794,0.005
1263,2.8844,0.005
1264,2.8834,-0.001
1265,2.8704,-0.013
1266,2.8384,-0.032
1267,2.8394,0.001
1268,2.8574,0.018
1269,2.8304,-0.027
1270,2.8414,0.011
1271,2.8334,-0.008
1272,2.8284,-0.005
1273,2.8394,0.011
1274,2.8524,0.013
1275,2.8544,0.002
1276,2.8654,0.011
1277,2.8664,0.001
1278,2.8564,-0.01
1279,2.8734,0.017
1280,2.8774,0.004
1281,2.9034,0.026
1282,2.9034,0
1283,2.9114,0.008
1284,2.9104,-0.001
1285,2.9014,-0.009
1286,2.9134,0.012
1287,2.8884,-0.025
1288,2.8924,0.004
1289,2.8964,0.004
1290,2.8974,0.001
1291,2.9084,0.011
1292,2.9124,0.004
1293,2.9094,-0.003
1294,2.9034,-0.006
1295,2.9164,0.013
1296,2.9334,0.017
1297,2.9344,0.001
1298,2.9344,0
1299,2.9194,-0.015
1300,2.9104,-0.009
1301,2.9144,0.004
1302,2.8994,-0.015
1303,2.9104,0.011
1304,2.8974,-0.013
1305,2.9024,0.005
1306,2.8994,-0.003
1307,2.9034,0.004
1308,2.9154,0.012
1309,2.9114,-0.004
1310,2.9234,0.012
1311,2.9224,-0.001
1312,2.9134,-0.009
1313,2.9124,-0.001
1314,2.9034,-0.009
1315,2.9174,0.014
1316,2.9274,0.01
1317,2.9304,0.003
1318,2.9384,0.008
1319,2.9334,-0.005
1320,2.9314,-0.002
1321,2.9434,0.012
1322,2.9384,-0.005
1323,2.9394,0.001
1324,2.9404,0.001
1325,2.9234,-0.017
1326,2.9234,0
1327,2.9294,0.006
1328,2.9244,-0.005
1329,2.9114,-0.013
1330,2.9064,-0.005
1331,2.9014,-0.005
1332,2.8884,-0.013
1333,2.8964,0.008
1334,2.9014,0.005
1335,2.8804,-0.021
1336,2.8794,-0.001
1337,2.8784,-0.001
1338,2.8804,0.002
1339,2.8864,0.006
1340,2.8844,-0.002
1341,2.8724,-0.012
1342,2.8794,0.007
1343,2.8724,-0.007
1344,2.8764,0.004
1345,2.8824,0.006
1346,2.8774,-0.005
1347,2.8774,0
1348,2.8514,-0.026
1349,2.8524,0.001
1350,2.8424,-0.01
1351,2.8394,-0.003
1352,2.8354,-0.004
1353,2.8324,-0.003
1354,2.8454,0.013
1355,2.8464,0.001
1356,2.8334,-0.013
1357,2.8424,0.009
1358,2.8464,0.004
1359,2.8484,0.002
1360,2.8334,-0.015
1361,2.8364,0.003
1362,2.8334,-0.003
1363,2.8454,0.012
1364,2.8374,-0.008
1365,2.8254,-0.012
1366,2.8194,-0.006
1367,2.8144,-0.005
1368,2.8234,0.009
1369,2.8244,0.001
1370,2.8374,0.013
1371,2.8564,0.019
1372,2.8594,0.003
1373,2.8604,0.001
1374,2.8494,-0.011
1375,2.8624,0.013
1376,2.8644,0.002
1377,2.8834,0.019
1378,2.8844,0.001
1379,2.8814,-0.003
1380,2.8794,-0.002
1381,2.8814,0.002
1382,2.8824,0.001
1383,2.8664,-0.016
1384,2.8804,0.014
1385,2.8834,0.003
1386,2.8874,0.004
1387,2.8854,-0.002
1388,2.8784,-0.007
1389,2.8774,-0.001
1390,2.8684,-0.009
1391,2.8704,0.002
1392,2.8434,-0.027
1393,2.8464,0.003
1394,2.8524,0.006
1395,2.8474,-0.005
1396,2.8444,-0.003
1397,2.8464,0.002
1398,2.8404,-0.006
1399,2.8394,-0.001
1400,2.8414,0.002
1401,2.8244,-0.017
1402,2.7954,-0.029
1403,2.7964,0.001
1404,2.8034,0.007
1405,2.8154,0.012
1406,2.8174,0.002
1407,2.8294,0.012
1408,2.8234,-0.006
1409,2.8204,-0.003
1410,2.8064,-0.014
1411,2.7994,-0.007
1412,2.7914,-0.008
1413,2.8024,0.011
1414,2.8004,-0.002
1415,2.8254,0.025
1416,2.8244,-0.001
1417,2.8114,-0.013
1418,2.8084,-0.003
1419,2.8094,0.001
1420,2.8064,-0.003
1421,2.7984,-0.008
1422,2.7814,-0.017
1423,2.7764,-0.005
1424,2.7914,0.015
1425,2.7854,-0.006
1426,2.7834,-0.002
1427,2.7744,-0.009
1428,2.7784,0.004
1429,2.7774,-0.001
1430,2.7784,0.001
1431,2.7634,-0.015
1432,2.7664,0.003
1433,2.7884,0.022
1434,2.7654,-0.023
1435,2.7614,-0.004
1436,2.7454,-0.016
1437,2.7524,0.007
1438,2.7454,-0.007
1439,2.7394,-0.006
1440,2.7374,-0.002
1441,2.7304,-0.007
1442,2.7294,-0.001
1443,2.7544,0.025
1444,2.7604,0.006
1445,2.7574,-0.003
1446,2.7614,0.004
1447,2.7404,-0.021
1448,2.7384,-0.002
1449,2.7214,-0.017
1450,2.7174,-0.004
1451,2.7364,0.019
1452,2.7494,0.013
1453,2.7564,0.007
1454,2.7584,0.002
1455,2.7724,0.014
1456,2.7684,-0.004
1457,2.7694,0.001
1458,2.7814,0.012
1459,2.7824,0.001
1460,2.7874,0.005
1461,2.7804,-0.007
1462,2.7774,-0.003
1463,2.7844,0.007
1464,2.7704,-0.014
1465,2.7684,-0.002
1466,2.7834,0.015
1467,2.7824,-0.001
1468,2.7624,-0.02
1469,2.7604,-0.002
1470,2.7454,-0.015
1471,2.7454,0
1472,2.7454,0
1473,2.7384,-0.007
1474,2.7394,0.001
1475,2.7344,-0.005
1476,2.7354,0.001
1477,2.7454,0.01
1478,2.7214,-0.024
1479,2.7384,0.017
1480,2.7314,-0.007
1481,2.7214,-0.01
1482,2.7204,-0.001
1483,2.7234,0.003
1484,2.7224,-0.001
1485,2.7164,-0.006
1486,2.7094,-0.007
1487,2.6944,-0.015
1488,2.6874,-0.007
1489,2.6714,-0.016
1490,2.6854,0.014
1491,2.6834,-0.002
1492,2.6814,-0.002
1493,2.6714,-0.01
1494,2.6714,0
1495,2.6764,0.005
1496,2.6694,-0.007
1497,2.6614,-0.008
1498,2.6624,0.001
1499,2.6634,0.001
1500,2.6724,0.009
1501,2.6724,0
1502,2.6594,-0.013
1503,2.6534,-0.006
1504,2.6574,0.004
1505,2.6794,0.022
1506,2.7014,0.022
1507,2.6974,-0.004
1508,2.6974,0
1509,2.6864,-0.011
1510,2.6734,-0.013
1511,2.7044,0.031
1512,2.6944,-0.01
1513,2.7074,0.013
1514,2.7174,0.01
1515,2.7054,-0.012
1516,2.7064,0.001
1517,2.6964,-0.01
1518,2.7124,0.016
1519,2.7174,0.005
1520,2.7174,0
1521,2.7044,-0.013
1522,2.7234,0.019
1523,2.7244,0.001
1524,2.7254,0.001
1525,2.7244,-0.001
1526,2.7224,-0.002
1527,2.7294,0.007
1528,2.7254,-0.004
1529,2.7264,0.001
1530,2.7274,0.001
1531,2.7334,0.006
1532,2.7424,0.009
1533,2.7454,0.003
1534,2.7574,0.012
1535,2.7594,0.002
1536,2.7604,0.001
1537,2.7524,-0.008
1538,2.7524,0
1539,2.7654,0.013
1540,2.7604,-0.005
1541,2.7494,-0.011
1542,2.7444,-0.005
1543,2.7534,0.009
1544,2.7614,0.008
1545,2.7584,-0.003
1546,2.7664,0.008
1547,2.7454,-0.021
1548,2.7404,-0.005
1549,2.7504,0.01
1550,2.7524,0.002
1551,2.7394,-0.013
1552,2.7404,0.001
1553,2.7394,-0.001
1554,2.7304,-0.009
1555,2.7314,0.001
1556,2.7294,-0.002
1557,2.7094,-0.02
1558,2.7004,-0.009
1559,2.7034,0.003
1560,2.7034,0
1561,2.7194,0.016
1562,2.7214,0.002
1563,2.7144,-0.007
1564,2.7214,0.007
1565,2.7214,0
1566,2.7354,0.014
1567,2.7374,0.002
1568,2.7364,-0.001
1569,2.7274,-0.009
1570,2.7434,0.016
1571,2.7424,-0.001
1572,2.7504,0.008
1573,2.7454,-0.005
1574,2.7444,-0.001
1575,2.7504,0.006
1576,2.7524,0.002
1577,2.7504,-0.002
1578,2.7664,0.016
1579,2.7684,0.002
1580,2.7754,0.007
1581,2.7764,0.001
1582,2.7744,-0.002
1583,2.7604,-0.014
1584,2.7594,-0.001
1585,2.7544,-0.005
1586,2.7484,-0.006
1587,2.7494,0.001
1588,2.7374,-0.012
1589,2.7484,0.011
1590,2.7374,-0.011
1591,2.7414,0.004
1592,2.7524,0.011
1593,2.7494,-0.003
1594,2.7434,-0.006
1595,2.7374,-0.006
1596,2.7484,0.011
1597,2.7584,0.01
1598,2.7564,-0.002
1599,2.7544,-0.002
1600,2.7544,0
1601,2.7344,-0.02
1602,2.7344,0
1603,2.7344,0
1604,2.7314,-0.003
1605,2.7264,-0.005
1606,2.7364,0.01
1607,2.7314,-0.005
1608,2.7424,0.011
1609,2.7374,-0.005
1610,2.7404,0.003
1611,2.7444,0.004
1612,2.7384,-0.006
1613,2.7364,-0.002
1614,2.7264,-0.01
1615,2.7104,-0.016
1616,2.7124,0.002
1617,2.7104,-0.002
1618,2.7044,-0.006
1619,2.7144,0.01
1620,2.7144,0
1621,2.7154,0.001
1622,2.7164,0.001
1623,2.7164,0
1624,2.7074,-0.009
1625,2.7184,0.011
1626,2.7024,-0.016
1627,2.7004,-0.002
1628,2.7054,0.005
1629,2.7124,0.007
1630,2.7134,0.001
1631,2.6994,-0.014
1632,2.7034,0.004
1633,2.7034,0
1634,2.7064,0.003
1635,2.6994,-0.007
1636,2.6904,-0.009
1637,2.6934,0.003
1638,2.6894,-0.004
1639,2.6854,-0.004
1640,2.6854,0
1641,2.6814,-0.004
1642,2.6814,0
1643,2.6884,0.007
1644,2.6814,-0.007
1645,2.6874,0.006
1646,2.6964,0.009
1647,2.6974,0.001
1648,2.6974,0
1649,2.7034,0.006
1650,2.7004,-0.003
1651,2.6874,-0.013
1652,2.6884,0.001
1653,2.6814,-0.007
1654,2.6784,-0.003
1655,2.6764,-0.002
1656,2.6734,-0.003
1657,2.6764,0.003
1658,2.6714,-0.005
1659,2.6734,0.002
1660,2.6654,-0.008
1661,2.6524,-0.013
1662,2.6554,0.003
1663,2.6484,-0.007
1664,2.6474,-0.001
1665,2.6454,-0.002
1666,2.6524,0.007
1667,2.6464,-0.006
1668,2.6444,-0.002
1669,2.6494,0.005
1670,2.6774,0.028
1671,2.6804,0.003
1672,2.6764,-0.004
1673,2.6784,0.002
1674,2.6724,-0.006
1675,2.6774,0.005
1676,2.6614,-0.016
1677,2.6544,-0.007
1678,2.6574,0.003
1679,2.6434,-0.014
1680,2.6444,0.001
1681,2.6494,0.005
1682,2.6474,-0.002
1683,2.6404,-0.007
1684,2.6594,0.019
1685,2.6704,0.011
1686,2.6704,0
1687,2.6644,-0.006
1688,2.6784,0.014
1689,2.6794,0.001
1690,2.6734,-0.006
1691,2.6744,0.001
1692,2.6714,-0.003
1693,2.6724,0.001
1694,2.6724,0
1695,2.6824,0.01
1696,2.6814,-0.001
1697,2.6844,0.003
1698,2.6764,-0.008
1699,2.6744,-0.002
1700,2.6704,-0.004
1701,2.6584,-0.012
1702,2.6544,-0.004
1703,2.6554,0.001
1704,2.6604,0.005
1705,2.6724,0.012
1706,2.6744,0.002
1707,2.6734,-0.001
1708,2.6704,-0.003
1709,2.6694,-0.001
1710,2.6574,-0.012
1711,2.6564,-0.001
1712,2.6594,0.003
1713,2.6474,-0.012
1714,2.6504,0.003
1715,2.6424,-0.008
1716,2.6374,-0.005
1717,2.6374,0
1718,2.6344,-0.003
1719,2.6434,0.009
1720,2.6384,-0.005
1721,2.6424,0.004
1722,2.6374,-0.005
1723,2.6304,-0.007
1724,2.6244,-0.006
1725,2.6204,-0.004
1726,2.6264,0.006
1727,2.6184,-0.008
1728,2.6244,0.006
1729,2.6464,0.022
1730,2.6454,-0.001
1731,2.6584,0.013
1732,2.6644,0.006
1733,2.6614,-0.003
1734,2.6634,0.002
1735,2.6564,-0.007
1736,2.6884,0.032
1737,2.6914,0.003
1738,2.6924,0.001
1739,2.6934,0.001
1740,2.6974,0.004
1741,2.6934,-0.004
1742,2.6964,0.003
1743,2.7154,0.019
1744,2.7174,0.002
1745,2.7144,-0.003
1746,2.7244,0.01
1747,2.7364,0.012
1748,2.7364,0
1749,2.7394,0.003
1750,2.7374,-0.002
1751,2.7374,0
1752,2.7384,0.001
1753,2.7244,-0.014
1754,2.7514,0.027
1755,2.7564,0.005
1756,2.7514,-0.005
1757,2.7444,-0.007
1758,2.7564,0.012
1759,2.7604,0.004
1760,2.7564,-0.004
1761,2.7594,0.003
1762,2.7524,-0.007
1763,2.7494,-0.003
1764,2.7724,0.023
1765,2.7794,0.007
1766,2.7824,0.003
1767,2.7814,-0.001
1768,2.7974,0.016
1769,2.7994,0.002
1770,2.8064,0.007
1771,2.8074,0.001
1772,2.8034,-0.004
1773,2.8064,0.003
1774,2.7964,-0.01
1775,2.7824,-0.014
1776,2.7874,0.005
1777,2.7614,-0.026
1778,2.7574,-0.004
1779,2.7604,0.003
1780,2.7494,-0.011
1781,2.7574,0.008
1782,2.7794,0.022
1783,2.7784,-0.001
1784,2.7434,-0.035
1785,2.7654,0.022
1786,2.7734,0.008
1787,2.7644,-0.009
1788,2.7604,-0.004
1789,2.7564,-0.004
1790,2.7464,-0.01
1791,2.7384,-0.008
1792,2.7404,0.002
1793,2.7424,0.002
1794,2.7314,-0.011
1795,2.7374,0.006
1796,2.7614,0.024
1797,2.7624,0.001
1798,2.7634,0.001
1799,2.7624,-0.001
1800,2.7514,-0.011
1801,2.7534,0.002
1802,2.7304,-0.023
1803,2.7294,-0.001
1804,2.7284,-0.001
1805,2.7264,-0.002
1806,2.7264,0
1807,2.7224,-0.004
1808,2.7274,0.005
1809,2.7264,-0.001
1810,2.7244,-0.002
1811,2.7204,-0.004
1812,2.7134,-0.007
1813,2.7194,0.006
1814,2.7194,0
1815,2.7214,0.002
1816,2.7404,0.019
1817,2.7394,-0.001
1818,2.7174,-0.022
1819,2.7304,0.013
1820,2.7224,-0.008
1821,2.7164,-0.006
1822,2.7174,0.001
1823,2.7294,0.012
1824,2.7384,0.009
1825,2.7394,0.001
1826,2.7434,0.004
1827,2.7394,-0.004
1828,2.7434,0.004
1829,2.7404,-0.003
1830,2.7294,-0.011
1831,2.7334,0.004
1832,2.7464,0.013
1833,2.7584,0.012
1834,2.7634,0.005
1835,2.7644,0.001
1836,2.7654,0.001
1837,2.7564,-0.009
1838,2.7604,0.004
1839,2.7614,0.001
1840,2.7734,0.012
1841,2.7734,0
1842,2.7714,-0.002
1843,2.7634,-0.008
1844,2.7634,0
1845,2.7534,-0.01
1846,2.7524,-0.001
1847,2.7434,-0.009
1848,2.7314,-0.012
1849,2.7094,-0.022
1850,2.7144,0.005
1851,2.7104,-0.004
1852,2.7154,0.005
1853,2.7104,-0.005
1854,2.6874,-0.023
1855,2.6864,-0.001
1856,2.6454,-0.041
1857,2.6434,-0.002
1858,2.6454,0.002
1859,2.6434,-0.002
1860,2.6554,0.012
1861,2.6554,0
1862,2.6594,0.004
1863,2.6614,0.002
1864,2.6574,-0.004
1865,2.6624,0.005
1866,2.6644,0.002
1867,2.6464,-0.018
1868,2.6464,0
1869,2.6644,0.018
1870,2.6954,0.031
1871,2.6804,-0.015
1872,2.6894,0.009
1873,2.6934,0.004
1874,2.6834,-0.01
1875,2.6724,-0.011
1876,2.6564,-0.016
1877,2.6604,0.004
1878,2.6794,0.019
1879,2.6744,-0.005
1880,2.6714,-0.003
1881,2.6674,-0.004
1882,2.6534,-0.014
1883,2.6574,0.004
1884,2.6584,0.001
1885,2.6744,0.016
1886,2.6744,0
1887,2.6834,0.009
1888,2.6884,0.005
1889,2.6844,-0.004
1890,2.6834,-0.001
1891,2.6864,0.003
1892,2.7054,0.019
1893,2.7074,0.002
1894,2.7044,-0.003
1895,2.6964,-0.008
1896,2.6924,-0.004
1897,2.7004,0.008
1898,2.6944,-0.006
1899,2.6934,-0.001
1900,2.6924,-0.001
1901,2.6874,-0.005
1902,2.7014,0.014
1903,2.7024,0.001
1904,2.6994,-0.003
1905,2.6964,-0.003
1906,2.6954,-0.001
1907,2.6974,0.002
1908,2.7064,0.009
1909,2.7054,-0.001
1910,2.7034,-0.002
1911,2.7074,0.004
1912,2.7314,0.024
1913,2.7404,0.009
1914,2.7434,0.003
1915,2.7504,0.007
1916,2.7454,-0.005
1917,2.7424,-0.003
1918,2.7284,-0.014
1919,2.7294,0.001
1920,2.7404,0.011
1921,2.7324,-0.008
1922,2.7284,-0.004
1923,2.7154,-0.013
1924,2.7184,0.003
1925,2.7224,0.004
1926,2.7324,0.01
1927,2.7354,0.003
1928,2.7284,-0.007
1929,2.7394,0.011
1930,2.7414,0.002
1931,2.7394,-0.002
1932,2.7264,-0.013
1933,2.7244,-0.002
1934,2.7274,0.003
1935,2.7404,0.013
1936,2.7334,-0.007
1937,2.7254,-0.008
1938,2.7204,-0.005
1939,2.7114,-0.009
1940,2.7104,-0.001
1941,2.7114,0.001
1942,2.7214,0.01
1943,2.7124,-0.009
1944,2.7154,0.003
1945,2.7144,-0.001
1946,2.7154,0.001
1947,2.7074,-0.008
1948,2.7034,-0.004
1949,2.6934,-0.01
1950,2.6954,0.002
1951,2.7024,0.007
1952,2.6874,-0.015
1953,2.6924,0.005
1954,2.7054,0.013
1955,2.7274,0.022
1956,2.7224,-0.005
1957,2.7264,0.004
1958,2.7224,-0.004
1959,2.7184,-0.004
1960,2.7164,-0.002
1961,2.7154,-0.001
1962,2.7234,0.008
1963,2.7304,0.007
1964,2.7304,0
1965,2.7244,-0.006
1966,2.7314,0.007
1967,2.7404,0.009
1968,2.7384,-0.002
1969,2.7344,-0.004
1970,2.7344,0
1971,2.7344,0
1972,2.7234,-0.011
1973,2.7224,-0.001
1974,2.7224,0
1975,2.7104,-0.012
1976,2.7074,-0.003
1977,2.7074,0
1978,2.7004,-0.007
1979,2.6854,-0.015
1980,2.6864,0.001
1981,2.6874,0.001
1982,2.6924,0.005
1983,2.6814,-0.011
1984,2.6924,0.011
1985,2.6914,-0.001
1986,2.6994,0.008
1987,2.6974,-0.002
1988,2.6884,-0.009
1989,2.6734,-0.015
1990,2.6734,0
1991,2.6744,0.001
1992,2.6684,-0.006
1993,2.6634,-0.005
1994,2.6604,-0.003
1995,2.6654,0.005
1996,2.6644,-0.001
1997,2.6654,0.001
1998,2.6554,-0.01
1999,2.6524,-0.003
2000,2.6584,0.006
2001,2.6744,0.016
2002,2.6714,-0.003
2003,2.6754,0.004
2004,2.6674,-0.008
2005,2.6684,0.001
2006,2.6714,0.003
2007,2.6634,-0.008
2008,2.6664,0.003
2009,2.6824,0.016
2010,2.6874,0.005
2011,2.6894,0.002
2012,2.6854,-0.004
2013,2.6904,0.005
2014,2.6954,0.005
2015,2.6864,-0.009
2016,2.6944,0.008
2017,2.6884,-0.006
2018,2.6814,-0.007
2019,2.6674,-0.014
2020,2.6504,-0.017
2021,2.6524,0.002
2022,2.6494,-0.003
2023,2.6564,0.007
2024,2.6594,0.003
2025,2.6584,-0.001
2026,2.6524,-0.006
2027,2.6554,0.003
2028,2.6534,-0.002
2029,2.6324,-0.021
2030,2.6364,0.004
2031,2.6374,0.001
2032,2.6444,0.007
2033,2.6394,-0.005
2034,2.6464,0.007
2035,2.6444,-0.002
2036,2.6394,-0.005
2037,2.6304,-0.009
2038,2.6514,0.021
2039,2.6564,0.005
2040,2.6554,-0.001
2041,2.6544,-0.001
2042,2.6504,-0.004
2043,2.6494,-0.001
2044,2.6474,-0.002
2045,2.6524,0.005
2046,2.6574,0.005
2047,2.6534,-0.004
2048,2.6594,0.006
2049,2.6744,0.015
2050,2.6744,0
2051,2.6844,0.01
2052,2.6834,-0.001
2053,2.6824,-0.001
2054,2.6714,-0.011
2055,2.6724,0.001
2056,2.6704,-0.002
2057,2.6694,-0.001
2058,2.6594,-0.01
2059,2.6624,0.003
2060,2.6614,-0.001
2061,2.6604,-0.001
2062,2.6544,-0.006
2063,2.6444,-0.01
2064,2.6514,0.007
2065,2.6514,0
2066,2.6504,-0.001
2067,2.6504,0
2068,2.6454,-0.005
2069,2.6454,0
2070,2.6454,0
2071,2.6584,0.013
2072,2.6564,-0.002
2073,2.6564,0
2074,2.6484,-0.008
2075,2.6484,0
2076,2.6404,-0.008
2077,2.6404,0
2078,2.6464,0.006
2079,2.6444,-0.002
2080,2.6504,0.006
2081,2.6524,0.002
2082,2.6494,-0.003
2083,2.6564,0.007
2084,2.6524,-0.004
2085,2.6524,0
2086,2.6514,-0.001
2087,2.6444,-0.007
2088,2.6514,0.007
2089,2.6474,-0.004
2090,2.6474,0
2091,2.6554,0.008
2092,2.6554,0
2093,2.6534,-0.002
2094,2.6594,0.006
2095,2.6644,0.005
2096,2.6584,-0.006
2097,2.6564,-0.002
2098,2.6464,-0.01
2099,2.6494,0.003
2100,2.6494,0
2101,2.6534,0.004
2102,2.6504,-0.003
2103,2.6554,0.005
2104,2.6564,0.001
2105,2.6604,0.004
2106,2.6604,0
2107,2.6624,0.002
2108,2.6654,0.003
2109,2.6654,0
2110,2.6644,-0.001
2111,2.6664,0.002
2112,2.6574,-0.009
2113,2.6564,-0.001
2114,2.6594,0.003
2115,2.6664,0.007
2116,2.6674,0.001
2117,2.6664,-0.001
2118,2.6634,-0.003
2119,2.6664,0.003
2120,2.6664,0
2121,2.6744,0.008
2122,2.6764,0.002
2123,2.6874,0.011
2124,2.6944,0.007
2125,2.7134,0.019
2126,2.7154,0.002
2127,2.7134,-0.002
2128,2.7214,0.008
2129,2.7154,-0.006
2130,2.7284,0.013
2131,2.7274,-0.001
2132,2.7254,-0.002
2133,2.7154,-0.01
2134,2.7164,0.001
2135,2.7264,0.01
2136,2.7244,-0.002
2137,2.7244,0
2138,2.7174,-0.007
2139,2.7254,0.008
2140,2.7294,0.004
2141,2.7294,0
2142,2.7274,-0.002
2143,2.7234,-0.004
2144,2.7274,0.004
2145,2.7204,-0.007
2146,2.7144,-0.006
2147,2.7154,0.001
2148,2.7114,-0.004
2149,2.7184,0.007
2150,2.7234,0.005
2151,2.7324,0.009
2152,2.7394,0.007
2153,2.7444,0.005
2154,2.7514,0.007
2155,2.7504,-0.001
2156,2.7464,-0.004
2157,2.7434,-0.003
2158,2.7484,0.005
2159,2.7484,0
2160,2.7344,-0.014
2161,2.7374,0.003
2162,2.7394,0.002
2163,2.7444,0.005
2164,2.7314,-0.013
2165,2.7374,0.006
2166,2.7494,0.012
2167,2.7484,-0.001
2168,2.7484,0
2169,2.7514,0.003
2170,2.7524,0.001
2171,2.7604,0.008
2172,2.7614,0.001
2173,2.7574,-0.004
2174,2.7534,-0.004
2175,2.7514,-0.002
2176,2.7564,0.005
2177,2.7504,-0.006
2178,2.7494,-0.001
2179,2.7534,0.004
2180,2.7474,-0.006
2181,2.7434,-0.004
2182,2.7364,-0.007
2183,2.7354,-0.001
2184,2.7284,-0.007
2185,2.7424,0.014
2186,2.7524,0.01
2187,2.7574,0.005
2188,2.7694,0.012
2189,2.7704,0.001
2190,2.7704,0
2191,2.7684,-0.002
2192,2.7694,0.001
2193,2.7674,-0.002
2194,2.7864,0.019
2195,2.7844,-0.002
2196,2.7934,0.009
2197,2.7894,-0.004
2198,2.7894,0
2199,2.7864,-0.003
2200,2.7784,-0.008
2201,2.7774,-0.001
2202,2.7774,0
2203,2.7914,0.014
2204,2.8104,0.019
2205,2.8204,0.01
2206,2.8314,0.011
2207,2.8404,0.009
2208,2.8564,0.016
2209,2.8594,0.003
2210,2.8884,0.029
2211,2.9014,0.013
2212,2.9384,0.037
2213,2.9434,0.005
2214,2.9784,0.035
2215,2.9374,-0.041
2216,2.9684,0.031
2217,2.9594,-0.009
2218,2.9624,0.003
2219,2.9684,0.006
2220,2.9924,0.024
2221,3.0064,0.014
2222,3.0014,-0.005
2223,3.0114,0.01
2224,3.0164,0.005
2225,2.9964,-0.02
2226,2.9714,-0.025
2227,3.0014,0.03
2228,3.0314,0.03
2229,3.0334,0.002
2230,3.0344,0.001
2231,3.0554,0.021
2232,3.0844,0.029
2233,3.0844,0
2234,3.0854,0.001
2235,3.0614,-0.024
2236,3.0584,-0.003
2237,3.0494,-0.009
2238,3.0494,0
2239,3.0464,-0.003
2240,3.0754,0.029
2241,3.0854,0.01
2242,3.0064,-0.079
2243,3.0194,0.013
2244,3.0634,0.044
2245,3.0694,0.006
2246,3.0704,0.001
2247,3.0794,0.009
2248,3.0714,-0.008
2249,3.0564,-0.015
2250,3.0434,-0.013
2251,3.0304,-0.013
2252,3.0074,-0.023
2253,3.0314,0.024
2254,3.0214,-0.01
2255,3.0114,-0.01
2256,2.9954,-0.016
2257,3.0044,0.009
2258,3.0224,0.018
2259,3.0304,0.008
2260,3.0334,0.003
2261,3.0404,0.007
2262,3.0494,0.009
2263,3.0564,0.007
2264,3.0434,-0.013
2265,3.0684,0.025
2266,3.0704,0.002
2267,3.0784,0.008
2268,3.0514,-0.027
2269,3.0584,0.007
2270,3.0484,-0.01
2271,3.0434,-0.005
2272,3.0604,0.017
2273,3.0554,-0.005
2274,3.0564,0.001
2275,3.0754,0.019
2276,3.0824,0.007
2277,3.1074,0.025
2278,3.1224,0.015
2279,3.1474,0.025
2280,3.1454,-0.002
2281,3.1604,0.015
2282,3.1834,0.023
2283,3.1834,0
2284,3.1744,-0.009
2285,3.1774,0.003
2286,3.1834,0.006
2287,3.2164,0.033
2288,3.2064,-0.01
2289,3.2264,0.02
2290,3.2274,0.001
2291,3.2404,0.013
2292,3.2654,0.025
2293,3.2754,0.01
2294,3.2664,-0.009
2295,3.2894,0.023
2296,3.3114,0.022
2297,3.3164,0.005
2298,3.3004,-0.016
2299,3.3374,0.037
2300,3.3604,0.023
2301,3.3404,-0.02
2302,3.3674,0.027
2303,3.4014,0.034
2304,3.4014,0
2305,3.3924,-0.009
2306,3.4214,0.029
2307,3.4024,-0.019
2308,3.4124,0.01
2309,3.4064,-0.006
2310,3.4164,0.01
2311,3.3634,-0.053
2312,3.3504,-0.013
2313,3.3274,-0.023
2314,3.3514,0.024
2315,3.3884,0.037
2316,3.4044,0.016
2317,3.3964,-0.008
2318,3.3924,-0.004
2319,3.3694,-0.023
2320,3.3574,-0.012
2321,3.4014,0.044
2322,3.4094,0.008
2323,3.4334,0.024
2324,3.4644,0.031
2325,3.5054,0.041
2326,3.5324,0.027
2327,3.5284,-0.004
2328,3.4324,-0.096
2329,3.4344,0.002
2330,3.4984,0.064
2331,3.5224,0.024
2332,3.5184,-0.004
2333,3.5294,0.011
2334,3.5434,0.014
2335,3.5804,0.037
2336,3.5684,-0.012
2337,3.5664,-0.002
2338,3.5644,-0.002
2339,3.5734,0.009
2340,3.5414,-0.032
2341,3.4974,-0.044
2342,3.5184,0.021
2343,3.4604,-0.058
2344,3.3794,-0.081
2345,3.4214,0.042
2346,3.4484,0.027
2347,3.3994,-0.049
2348,3.2944,-0.105
2349,3.2524,-0.042
2350,3.3334,0.081
2351,3.2724,-0.061
2352,3.2304,-0.042
2353,3.1704,-0.06
2354,3.2014,0.031
2355,3.1814,-0.02
2356,3.1034,-0.078
2357,3.1754,0.072
2358,3.2404,0.065
2359,3.2694,0.029
2360,3.2404,-0.029
2361,3.1964,-0.044
2362,3.2094,0.013
2363,3.2574,0.048
2364,3.2564,-0.001
2365,3.2584,0.002
2366,3.2564,-0.002
2367,3.2874,0.031
2368,3.2644,-0.023
2369,3.1604,-0.104
2370,3.1574,-0.003
2371,3.1914,0.034
2372,3.1584,-0.033
2373,3.1584,0
2374,3.1614,0.003
2375,3.1984,0.037
2376,3.1754,-0.023
2377,3.1654,-0.01
2378,3.1874,0.022
2379,3.2394,0.052
2380,3.2344,-0.005
2381,3.2204,-0.014
2382,3.2364,0.016
2383,3.2364,0
2384,3.2364,0
2385,3.1624,-0.074
2386,3.1804,0.018
2387,3.1444,-0.036
2388,3.0954,-0.049
2389,3.0024,-0.093
2390,2.9304,-0.072
2391,2.9264,-0.004
2392,2.9784,0.052
2393,3.0194,0.041
2394,3.0244,0.005
2395,3.0224,-0.002
2396,3.0234,0.001
2397,2.9944,-0.029
2398,3.0214,0.027
2399,3.0404,0.019
2400,3.0284,-0.012
2401,3.0264,-0.002
2402,3.0034,-0.023
2403,2.9694,-0.034
2404,3.0154,0.046
2405,2.9964,-0.019
2406,2.9994,0.003
2407,3.0174,0.018
2408,3.0264,0.009
2409,3.0044,-0.022
2410,3.0104,0.006
2411,2.9944,-0.016
2412,2.9984,0.004
2413,2.9794,-0.019
2414,2.9864,0.007
2415,3.0144,0.028
2416,3.0284,0.014
2417,3.0604,0.032
2418,3.0594,-0.001
2419,3.0484,-0.011
2420,3.0724,0.024
2421,3.0854,0.013
2422,3.0844,-0.001
2423,3.0974,0.013
2424,3.0664,-0.031
2425,3.0824,0.016
2426,3.0964,0.014
2427,3.1014,0.005
2428,3.1024,0.001
2429,3.0824,-0.02
2430,3.0854,0.003
2431,3.0864,0.001
2432,3.0694,-0.017
2433,3.0664,-0.003
2434,3.1144,0.048
2435,3.1374,0.023
2436,3.1634,0.026
2437,3.1774,0.014
2438,3.1754,-0.002
2439,3.1754,0
2440,3.1644,-0.011
2441,3.1504,-0.014
2442,3.1564,0.006
2443,3.1544,-0.002
2444,3.1424,-0.012
2445,3.1594,0.017
2446,3.1594,0
2447,3.1524,-0.007
2448,3.1534,0.001
2449,3.1614,0.008
2450,3.1554,-0.006
2451,3.0964,-0.059
2452,3.0994,0.003
2453,3.1064,0.007
2454,3.1454,0.039
2455,3.1534,0.008
2456,3.1324,-0.021
2457,3.1354,0.003
2458,3.1154,-0.02
2459,3.1194,0.004
2460,3.1164,-0.003
2461,3.1134,-0.003
2462,3.1434,0.03
2463,3.1384,-0.005
2464,3.1364,-0.002
2465,3.1564,0.02
2466,3.1604,0.004
2467,3.1894,0.029
2468,3.1924,0.003
2469,3.1894,-0.003
2470,3.1784,-0.011
2471,3.1814,0.003
2472,3.1484,-0.033
2473,3.1584,0.01
2474,3.1594,0.001
2475,3.1494,-0.01
2476,3.0744,-0.075
2477,3.0744,0
2478,3.0934,0.019
2479,3.0234,-0.07
2480,3.0414,0.018
2481,2.9924,-0.049
2482,2.9984,0.006
2483,2.9814,-0.017
2484,3.0004,0.019
2485,2.9694,-0.031
2486,2.9734,0.004
2487,3.0014,0.028
2488,2.9864,-0.015
2489,2.9594,-0.027
2490,2.9684,0.009
2491,2.9724,0.004
2492,2.9184,-0.054
2493,2.9144,-0.004
2494,2.8924,-0.022
2495,2.9194,0.027
2496,2.9064,-0.013
2497,2.9244,0.018
2498,2.9204,-0.004
2499,2.9314,0.011
2500,2.9254,-0.006
2501,2.9204,-0.005
2502,2.9474,0.027
2503,2.9544,0.007
2504,2.9524,-0.002
2505,2.9514,-0.001
2506,2.9714,0.02
2507,2.9624,-0.009
2508,2.9684,0.006
2509,2.9124,-0.056
2510,2.9204,0.008
2511,2.8984,-0.022
2512,2.9154,0.017
2513,2.9514,0.036
2514,2.9534,0.002
2515,2.9644,0.011
2516,2.9684,0.004
2517,2.9684,0
2518,2.9574,-0.011
2519,2.9414,-0.016
2520,2.9424,0.001
2521,2.9564,0.014
2522,2.9584,0.002
2523,2.9634,0.005
2524,2.9744,0.011
2525,2.9894,0.015
2526,3.0124,0.023
2527,3.0054,-0.007
2528,3.0074,0.002
2529,2.9924,-0.015
2530,2.9964,0.004
2531,2.9884,-0.008
2532,2.9784,-0.01
2533,3.0024,0.024
2534,3.0024,0
2535,3.0034,0.001
2536,3.0164,0.013
2537,3.0144,-0.002
2538,3.0004,-0.014
2539,2.9934,-0.007
2540,3.0064,0.013
2541,3.0034,-0.003
2542,3.0164,0.013
2543,3.0204,0.004
2544,3.0194,-0.001
2545,3.0064,-0.013
2546,3.0094,0.003
2547,2.9914,-0.018
2548,2.9864,-0.005
2549,2.9904,0.004
2550,2.9864,-0.004
2551,2.9914,0.005
2552,2.9874,-0.004
2553,2.9864,-0.001
2554,2.9854,-0.001
2555,3.0024,0.017
2556,3.0014,-0.001
2557,3.0024,0.001
2558,2.9784,-0.024
2559,2.9594,-0.019
2560,2.9604,0.001
2561,2.9644,0.004
2562,2.9664,0.002
2563,2.9624,-0.004
2564,2.9684,0.006
2565,2.9664,-0.002
2566,2.9604,-0.006
2567,2.9594,-0.001
2568,2.9634,0.004
2569,2.9664,0.003
2570,2.9594,-0.007
2571,2.9584,-0.001
2572,2.9604,0.002
2573,2.9594,-0.001
2574,2.9614,0.002
2575,2.9914,0.03
2576,2.9894,-0.002
2577,2.9914,0.002
2578,2.9984,0.007
2579,2.9954,-0.003
2580,2.9954,0
2581,2.9924,-0.003
2582,2.9634,-0.029
2583,2.9664,0.003
2584,2.9784,0.012
2585,2.9724,-0.006
2586,2.9774,0.005
2587,2.9784,0.001
2588,2.9764,-0.002
2589,2.9844,0.008
2590,2.9804,-0.004
2591,2.9704,-0.01
2592,2.9834,0.013
2593,2.9884,0.005
2594,2.9924,0.004
2595,2.9944,0.002
2596,2.9944,0
2597,3.0094,0.015
2598,3.0114,0.002
2599,3.0144,0.003
2600,3.0144,0
2601,3.0104,-0.004
2602,3.0144,0.004
2603,3.0354,0.021
2604,3.0404,0.005
2605,3.0384,-0.002
2606,3.0394,0.001
2607,3.0344,-0.005
2608,3.0304,-0.004
2609,3.0284,-0.002
2610,3.0324,0.004
2611,3.0244,-0.008
2612,3.0264,0.002
2613,3.0384,0.012
2614,3.0224,-0.016
2615,3.0234,0.001
2616,3.0194,-0.004
2617,3.0114,-0.008
2618,3.0154,0.004
2619,3.0164,0.001
2620,3.0184,0.002
2621,3.0204,0.002
2622,3.0294,0.009
2623,3.0354,0.006
2624,3.0324,-0.003
2625,3.0294,-0.003
2626,3.0474,0.018
2627,3.0784,0.031
2628,3.0734,-0.005
2629,3.0714,-0.002
2630,3.0694,-0.002
2631,3.0694,0
2632,3.0614,-0.008
2633,3.0624,0.001
2634,3.0594,-0.003
2635,3.0534,-0.006
2636,3.0524,-0.001
2637,3.0534,0.001
2638,3.0544,0.001
2639,3.0594,0.005
2640,3.0514,-0.008
2641,3.0554,0.004
2642,3.0574,0.002
2643,3.0644,0.007
2644,3.0634,-0.001
2645,3.0634,0
2646,3.0574,-0.006
2647,3.0394,-0.018
2648,3.0394,0
2649,3.0324,-0.007
2650,3.0404,0.008
2651,3.0384,-0.002
2652,3.0414,0.003
2653,3.0494,0.008
2654,3.0444,-0.005
2655,3.0284,-0.016
2656,3.0344,0.006
2657,3.0314,-0.003
2658,3.0364,0.005
2659,3.0384,0.002
2660,3.0504,0.012
2661,3.0544,0.004
2662,3.0524,-0.002
2663,3.0534,0.001
2664,3.0544,0.001
2665,3.0464,-0.008
2666,3.0594,0.013
2667,3.0574,-0.002
2668,3.0584,0.001
2669,3.0614,0.003
2670,3.0734,0.012
2671,3.0734,0
2672,3.0694,-0.004
2673,3.0674,-0.002
2674,3.0654,-0.002
2675,3.0644,-0.001
2676,3.0714,0.007
2677,3.0634,-0.008
2678,3.0734,0.01
2679,3.0694,-0.004
2680,3.0704,0.001
2681,3.0754,0.005
2682,3.0694,-0.006
2683,3.0814,0.012
2684,3.0894,0.008
2685,3.0934,0.004
2686,3.0924,-0.001
2687,3.0934,0.001
2688,3.0944,0.001
2689,3.0894,-0.005
2690,3.0964,0.007
2691,3.1044,0.008
2692,3.1064,0.002
2693,3.1114,0.005
2694,3.1204,0.009
2695,3.1254,0.005
2696,3.1344,0.009
2697,3.1264,-0.008
2698,3.1344,0.008
2699,3.1234,-0.011
2700,3.1054,-0.018
2701,3.1024,-0.003
2702,3.1074,0.005
2703,3.1054,-0.002
2704,3.1124,0.007
2705,3.0874,-0.025
2706,3.0864,-0.001
2707,3.0784,-0.008
2708,3.0664,-0.012
2709,3.0684,0.002
2710,3.0634,-0.005
2711,3.0564,-0.007
2712,3.0654,0.009
2713,3.0654,0
2714,3.0564,-0.009
2715,3.0604,0.004
2716,3.0594,-0.001
2717,3.0544,-0.005
2718,3.0544,0
2719,3.0574,0.003
2720,3.0574,0
2721,3.0674,0.01
2722,3.0754,0.008
2723,3.0754,0
2724,3.0694,-0.006
2725,3.0744,0.005
2726,3.0724,-0.002
2727,3.0654,-0.007
2728,3.0604,-0.005
2729,3.0604,0
2730,3.0604,0
2731,3.0624,0.002
2732,3.0664,0.004
2733,3.0644,-0.002
2734,3.0714,0.007
2735,3.0744,0.003
2736,3.0744,0
2737,3.0784,0.004
2738,3.0814,0.003
2739,3.0744,-0.007
2740,3.0764,0.002
2741,3.0744,-0.002
2742,3.0804,0.006
2743,3.0844,0.004
2744,3.0894,0.005
2745,3.0964,0.007
2746,3.0964,0
2747,3.0924,-0.004
2748,3.0974,0.005
2749,3.0914,-0.006
2750,3.1074,0.016
2751,3.1104,0.003
2752,3.1124,0.002
2753,3.1074,-0.005
2754,3.1074,0
2755,3.0994,-0.008
2756,3.1014,0.002
2757,3.1034,0.002
2758,3.0964,-0.007
2759,3.0934,-0.003
2760,3.0994,0.006
2761,3.1014,0.002
2762,3.1004,-0.001
2763,3.0934,-0.007
2764,3.0934,0
2765,3.1034,0.01
2766,3.1024,-0.001
2767,3.1044,0.002
2768,3.1104,0.006
2769,3.0994,-0.011
2770,3.1004,0.001
2771,3.1054,0.005
2772,3.1014,-0.004
2773,3.1044,0.003
2774,3.1134,0.009
2775,3.1104,-0.003
2776,3.1074,-0.003
2777,3.1064,-0.001
2778,3.0974,-0.009
2779,3.1034,0.006
2780,3.1184,0.015
2781,3.1214,0.003
2782,3.1224,0.001
2783,3.1194,-0.003
2784,3.1224,0.003
2785,3.1204,-0.002
2786,3.1214,0.001
2787,3.1134,-0.008
2788,3.1114,-0.002
2789,3.1064,-0.005
2790,3.1014,-0.005
2791,3.1054,0.004
2792,3.1074,0.002
2793,3.0964,-0.011
2794,3.0994,0.003
2795,3.1004,0.001
2796,3.1014,0.001
2797,3.0994,-0.002
2798,3.0954,-0.004
2799,3.0914,-0.004
2800,3.0884,-0.003
2801,3.0814,-0.007
2802,3.0744,-0.007
2803,3.0724,-0.002
2804,3.0694,-0.003
2805,3.0744,0.005
2806,3.0834,0.009
2807,3.0884,0.005
2808,3.0974,0.009
2809,3.0914,-0.006
2810,3.0884,-0.003
2811,3.0894,0.001
2812,3.0924,0.003
2813,3.0964,0.004
2814,3.0964,0
2815,3.1154,0.019
2816,3.1134,-0.002
2817,3.1174,0.004
2818,3.1194,0.002
2819,3.1164,-0.003
2820,3.1114,-0.005
2821,3.1184,0.007
2822,3.1314,0.013
2823,3.1394,0.008
2824,3.1444,0.005
2825,3.1444,0
2826,3.1464,0.002
2827,3.1344,-0.012
2828,3.1324,-0.002
2829,3.1314,-0.001
2830,3.1414,0.01
2831,3.1394,-0.002
2832,3.1524,0.013
2833,3.1534,0.001
2834,3.1634,0.01
2835,3.1774,0.014
2836,3.1794,0.002
2837,3.1704,-0.009
2838,3.1774,0.007
2839,3.1774,0
2840,3.1724,-0.005
2841,3.1634,-0.009
2842,3.1764,0.013
2843,3.1774,0.001
2844,3.1774,0
2845,3.1774,0
2846,3.1834,0.006
2847,3.1804,-0.003
2848,3.1894,0.009
2849,3.1954,0.006
2850,3.1834,-0.012
2851,3.1854,0.002
2852,3.2044,0.019
2853,3.2104,0.006
2854,3.2044,-0.006
2855,3.2094,0.005
2856,3.2024,-0.007
2857,3.1974,-0.005
2858,3.2004,0.003
2859,3.2034,0.003
2860,3.2084,0.005
2861,3.2184,0.01
2862,3.2154,-0.003
2863,3.2054,-0.01
2864,3.1994,-0.006
2865,3.2054,0.006
2866,3.2074,0.002
2867,3.2064,-0.001
2868,3.2024,-0.004
2869,3.1814,-0.021
2870,3.1964,0.015
2871,3.1994,0.003
2872,3.1984,-0.001
2873,3.2044,0.006
2874,3.2054,0.001
2875,3.2104,0.005
2876,3.2134,0.003
2877,3.2154,0.002
2878,3.2084,-0.007
2879,3.2274,0.019
2880,3.2424,0.015
2881,3.2404,-0.002
2882,3.2404,0
2883,3.2364,-0.004
2884,3.2384,0.002
2885,3.2444,0.006
2886,3.2474,0.003
2887,3.2454,-0.002
2888,3.2394,-0.006
2889,3.2384,-0.001
2890,3.2374,-0.001
2891,3.2414,0.004
2892,3.2434,0.002
2893,3.2394,-0.004
2894,3.2394,0
2895,3.2434,0.004
2896,3.2394,-0.004
2897,3.2434,0.004
2898,3.2414,-0.002
2899,3.2414,0
2900,3.2354,-0.006
2901,3.2364,0.001
2902,3.2364,0
2903,3.2364,0
2904,3.2414,0.005
2905,3.2554,0.014
2906,3.2574,0.002
2907,3.2614,0.004
2908,3.2644,0.003
2909,3.2674,0.003
2910,3.2644,-0.003
2911,3.2644,0
2912,3.2734,0.009
2913,3.2694,-0.004
2914,3.2684,-0.001
2915,3.2694,0.001
2916,3.2784,0.009
2917,3.2844,0.006
2918,3.2894,0.005
2919,3.2974,0.008
2920,3.2944,-0.003
2921,3.2934,-0.001
2922,3.2904,-0.003
2923,3.2904,0
2924,3.2884,-0.002
2925,3.2974,0.009
2926,3.3074,0.01
2927,3.3054,-0.002
2928,3.3144,0.009
2929,3.3254,0.011
2930,3.3304,0.005
2931,3.3214,-0.009
2932,3.3134,-0.008
2933,3.3234,0.01
2934,3.3274,0.004
2935,3.3344,0.007
2936,3.3574,0.023
2937,3.3604,0.003
2938,3.3224,-0.038
2939,3.3224,0
2940,3.3064,-0.016
2941,3.3074,0.001
2942,3.3074,0
2943,3.2924,-0.015
2944,3.2904,-0.002
2945,3.2964,0.006
2946,3.3034,0.007
2947,3.2954,-0.008
2948,3.2814,-0.014
2949,3.2924,0.011
2950,3.3094,0.017
2951,3.2934,-0.016
2952,3.3034,0.01
2953,3.2964,-0.007
2954,3.2824,-0.014
2955,3.2834,0.001
2956,3.2984,0.015
2957,3.2974,-0.001
2958,3.3084,0.011
2959,3.3044,-0.004
2960,3.3004,-0.004
2961,3.3044,0.004
2962,3.2854,-0.019
2963,3.2934,0.008
2964,3.2974,0.004
2965,3.2974,0
2966,3.3144,0.017
2967,3.3224,0.008
2968,3.3274,0.005
2969,3.3304,0.003
2970,3.3364,0.006
2971,3.3454,0.009
2972,3.3514,0.006
2973,3.3504,-0.001
2974,3.3564,0.006
2975,3.3564,0
2976,3.3664,0.01
2977,3.3634,-0.003
2978,3.3704,0.007
2979,3.3744,0.004
2980,3.3904,0.016
2981,3.4044,0.014
2982,3.4064,0.002
2983,3.3994,-0.007
2984,3.4044,0.005
2985,3.3804,-0.024
2986,3.3664,-0.014
2987,3.3724,0.006
2988,3.3624,-0.01
2989,3.3704,0.008
2990,3.3714,0.001
2991,3.3334,-0.038
2992,3.3034,-0.03
2993,3.2914,-0.012
2994,3.2394,-0.052
2995,3.2544,0.015
2996,3.2684,0.014
2997,3.2784,0.01
2998,3.3044,0.026
2999,3.3094,0.005
3000,3.3244,0.015
3001,3.3064,-0.018
3002,3.2954,-0.011
3003,3.3024,0.007
3004,3.2934,-0.009
3005,3.2934,0
3006,3.3084,0.015
3007,3.2994,-0.009
3008,3.3114,0.012
3009,3.3214,0.01
3010,3.3264,0.005
3011,3.3154,-0.011
3012,3.3104,-0.005
3013,3.3174,0.007
3014,3.3054,-0.012
3015,3.3104,0.005
3016,3.3114,0.001
3017,3.3064,-0.005
3018,3.2934,-0.013
3019,3.2574,-0.036
3020,3.2504,-0.007
3021,3.2604,0.01
3022,3.2384,-0.022
3023,3.2544,0.016
3024,3.2564,0.002
3025,3.2524,-0.004
3026,3.2454,-0.007
3027,3.2424,-0.003
3028,3.2424,0
3029,3.2644,0.022
3030,3.2684,0.004
3031,3.2564,-0.012
3032,3.2474,-0.009
3033,3.2284,-0.019
3034,3.2104,-0.018
3035,3.2154,0.005
3036,3.2294,0.014
3037,3.2134,-0.016
3038,3.2154,0.002
3039,3.2394,0.024
3040,3.2344,-0.005
3041,3.2124,-0.022
3042,3.2124,0
3043,3.2144,0.002
3044,3.2234,0.009
3045,3.2184,-0.005
3046,3.2364,0.018
3047,3.2504,0.014
3048,3.2484,-0.002
3049,3.2544,0.006
3050,3.2484,-0.006
3051,3.2594,0.011
3052,3.2644,0.005
3053,3.2544,-0.01
3054,3.2454,-0.009
3055,3.2574,0.012
3056,3.2634,0.006
3057,3.2584,-0.005
3058,3.2434,-0.015
3059,3.2344,-0.009
3060,3.2324,-0.002
3061,3.2374,0.005
3062,3.2284,-0.009
3063,3.2034,-0.025
3064,3.2284,0.025
3065,3.2184,-0.01
3066,3.2294,0.011
3067,3.2424,0.013
3068,3.2394,-0.003
3069,3.2394,0
3070,3.2254,-0.014
3071,3.2254,0
3072,3.2394,0.014
3073,3.2274,-0.012
3074,3.2234,-0.004
3075,3.2194,-0.004
3076,3.1784,-0.041
3077,3.1834,0.005
3078,3.1704,-0.013
3079,3.1764,0.006
3080,3.1614,-0.015
3081,3.1524,-0.009
3082,3.1304,-0.022
3083,3.1194,-0.011
3084,3.1474,0.028
3085,3.1474,0
3086,3.1164,-0.031
3087,3.1174,0.001
3088,3.1034,-0.014
3089,3.0974,-0.006
3090,3.1044,0.007
3091,3.1344,0.03
3092,3.1374,0.003
3093,3.1184,-0.019
3094,3.1434,0.025
3095,3.1484,0.005
3096,3.1434,-0.005
3097,3.1374,-0.006
3098,3.1314,-0.006
3099,3.1304,-0.001
3100,3.1514,0.021
3101,3.1614,0.01
3102,3.1794,0.018
3103,3.1774,-0.002
3104,3.1654,-0.012
3105,3.1604,-0.005
3106,3.1584,-0.002
3107,3.1594,0.001
3108,3.1384,-0.021
3109,3.1144,-0.024
3110,3.0964,-0.018
3111,3.0834,-0.013
3112,3.1134,0.03
3113,3.0974,-0.016
3114,3.1234,0.026
3115,3.1254,0.002
3116,3.1204,-0.005
3117,3.1154,-0.005
3118,3.0904,-0.025
3119,3.0854,-0.005
3120,3.0704,-0.015
3121,3.0824,0.012
3122,3.1014,0.019
3123,3.0954,-0.006
3124,3.0994,0.004
3125,3.1014,0.002
3126,3.1274,0.026
3127,3.1254,-0.002
3128,3.1204,-0.005
3129,3.1094,-0.011
3130,3.1044,-0.005
3131,3.1004,-0.004
3132,3.1134,0.013
3133,3.0934,-0.02
3134,3.0824,-0.011
3135,3.0874,0.005
3136,3.0724,-0.015
3137,3.0704,-0.002
3138,3.0634,-0.007
3139,3.0744,0.011
3140,3.0764,0.002
3141,3.0644,-0.012
3142,3.0844,0.02
3143,3.0984,0.014
3144,3.0974,-0.001
3145,3.1294,0.032
3146,3.1194,-0.01
3147,3.1314,0.012
3148,3.1274,-0.004
3149,3.1384,0.011
3150,3.0914,-0.047
3151,3.0914,0
3152,3.0884,-0.003
3153,3.0394,-0.049
3154,3.0544,0.015
3155,3.0404,-0.014
3156,3.0324,-0.008
3157,3.0374,0.005
3158,3.0144,-0.023
3159,3.0424,0.028
3160,3.0854,0.043
3161,3.0584,-0.027
3162,3.0594,0.001
3163,3.0614,0.002
3164,3.0554,-0.006
3165,3.0244,-0.031
3166,3.0354,0.011
3167,3.0484,0.013
3168,3.0564,0.008
3169,3.0914,0.035
3170,3.0834,-0.008
3171,3.0774,-0.006
3172,3.0704,-0.007
3173,3.0674,-0.003
3174,3.0534,-0.014
3175,3.0654,0.012
3176,3.0754,0.01
3177,3.0654,-0.01
3178,3.0774,0.012
3179,3.0814,0.004
3180,3.0934,0.012
3181,3.0694,-0.024
3182,3.0714,0.002
3183,3.0684,-0.003
3184,3.0454,-0.023
3185,3.0454,0
3186,3.0434,-0.002
3187,3.0564,0.013
3188,3.0434,-0.013
3189,3.0554,0.012
3190,3.0824,0.027
3191,3.0844,0.002
3192,3.0804,-0.004
3193,3.0574,-0.023
3194,3.0574,0
3195,3.0464,-0.011
3196,3.0504,0.004
3197,3.0544,0.004
3198,3.0694,0.015
3199,3.0524,-0.017
3200,3.0514,-0.001
3201,3.0404,-0.011
3202,3.0294,-0.011
3203,3.0214,-0.008
3204,3.0094,-0.012
3205,3.0124,0.003
3206,3.0064,-0.006
3207,3.0014,-0.005
3208,2.9974,-0.004
3209,3.0034,0.006
3210,3.0034,0
3211,2.9904,-0.013
3212,2.9894,-0.001
3213,3.0114,0.022
3214,3.0174,0.006
3215,3.0154,-0.002
3216,3.0244,0.009
3217,3.0224,-0.002
3218,3.0294,0.007
3219,3.0214,-0.008
3220,3.0404,0.019
3221,3.0404,0
3222,3.0354,-0.005
3223,3.0524,0.017
3224,3.0584,0.006
3225,3.0454,-0.013
3226,3.0444,-0.001
3227,3.0494,0.005
3228,3.0584,0.009
3229,3.0574,-0.001
3230,3.0604,0.003
3231,3.0524,-0.008
3232,3.0634,0.011
3233,3.0774,0.014
3234,3.0964,0.019
3235,3.1034,0.007
3236,3.1244,0.021
3237,3.1264,0.002
3238,3.1054,-0.021
3239,3.1394,0.034
3240,3.1374,-0.002
3241,3.1414,0.004
3242,3.1384,-0.003
3243,3.1624,0.024
3244,3.2284,0.066
3245,3.2144,-0.014
3246,3.2124,-0.002
3247,3.2094,-0.003
3248,3.2334,0.024
3249,3.2474,0.014
3250,3.2544,0.007
3251,3.2644,0.01
3252,3.2524,-0.012
3253,3.2034,-0.049
3254,3.2254,0.022
3255,3.2334,0.008
3256,3.2234,-0.01
3257,3.2154,-0.008
3258,3.2304,0.015
3259,3.2634,0.033
3260,3.2584,-0.005
3261,3.2584,0
3262,3.2584,0
3263,3.2584,0
3264,3.2294,-0.029
3265,3.2164,-0.013
3266,3.2304,0.014
3267,3.2254,-0.005
3268,3.2704,0.045
3269,3.3024,0.032
3270,3.3014,-0.001
3271,3.3174,0.016
3272,3.3304,0.013
3273,3.3284,-0.002
3274,3.3344,0.006
3275,3.3374,0.003
3276,3.3094,-0.028
3277,3.3064,-0.003
3278,3.3024,-0.004
3279,3.3374,0.035
3280,3.3374,0
3281,3.3324,-0.005
3282,3.3484,0.016
3283,3.3184,-0.03
3284,3.3164,-0.002
3285,3.3194,0.003
3286,3.2924,-0.027
3287,3.2764,-0.016
3288,3.2794,0.003
3289,3.2834,0.004
3290,3.2124,-0.071
3291,3.2224,0.01
3292,3.2054,-0.017
3293,3.1844,-0.021
3294,3.2244,0.04
3295,3.2054,-0.019
3296,3.1984,-0.007
3297,3.2234,0.025
3298,3.2284,0.005
3299,3.1984,-0.03
3300,3.1884,-0.01
3301,3.2044,0.016
3302,3.1984,-0.006
3303,3.1794,-0.019
3304,3.1834,0.004
3305,3.1974,0.014
3306,3.2084,0.011
3307,3.2054,-0.003
3308,3.1994,-0.006
3309,3.1964,-0.003
3310,3.1974,0.001
3311,3.1874,-0.01
3312,3.1874,0
3313,3.1774,-0.01
3314,3.1914,0.014
3315,3.2264,0.035
3316,3.2174,-0.009
3317,3.2164,-0.001
3318,3.2074,-0.009
3319,3.2074,0
3320,3.2114,0.004
3321,3.2294,0.018
3322,3.2644,0.035
3323,3.2664,0.002
3324,3.2694,0.003
3325,3.2564,-0.013
3326,3.2554,-0.001
3327,3.2684,0.013
3328,3.2664,-0.002
3329,3.2664,0
3330,3.3004,0.034
3331,3.3014,0.001
3332,3.2884,-0.013
3333,3.2814,-0.007
3334,3.2894,0.008
3335,3.2614,-0.028
3336,3.2584,-0.003
3337,3.2574,-0.001
3338,3.2574,0
3339,3.2674,0.01
3340,3.2724,0.005
3341,3.2664,-0.006
3342,3.2664,0
3343,3.2554,-0.011
3344,3.2684,0.013
3345,3.2614,-0.007
3346,3.2644,0.003
3347,3.2744,0.01
3348,3.2844,0.01
3349,3.2864,0.002
3350,3.2854,-0.001
3351,3.2904,0.005
3352,3.2794,-0.011
3353,3.2694,-0.01
3354,3.2524,-0.017
3355,3.2294,-0.023
3356,3.2174,-0.012
3357,3.2134,-0.004
3358,3.2284,0.015
3359,3.2174,-0.011
3360,3.2374,0.02
3361,3.2274,-0.01
3362,3.2324,0.005
3363,3.2364,0.004
3364,3.2424,0.006
3365,3.2674,0.025
3366,3.2664,-0.001
3367,3.2644,-0.002
3368,3.2684,0.004
3369,3.2774,0.009
3370,3.2604,-0.017
3371,3.2764,0.016
3372,3.2714,-0.005
3373,3.2674,-0.004
3374,3.2704,0.003
3375,3.2864,0.016
3376,3.2874,0.001
3377,3.2994,0.012
3378,3.3114,0.012
3379,3.3184,0.007
3380,3.3264,0.008
3381,3.3224,-0.004
3382,3.3124,-0.01
3383,3.3264,0.014
3384,3.3214,-0.005
3385,3.3004,-0.021
3386,3.3064,0.006
3387,3.3114,0.005
3388,3.3144,0.003
3389,3.3004,-0.014
3390,3.3034,0.003
3391,3.2944,-0.009
3392,3.2844,-0.01
3393,3.2884,0.004
3394,3.2764,-0.012
3395,3.2834,0.007
3396,3.2854,0.002
3397,3.2954,0.01
3398,3.3064,0.011
3399,3.3204,0.014
3400,3.3144,-0.006
3401,3.3104,-0.004
3402,3.3114,0.001
3403,3.2934,-0.018
3404,3.2964,0.003
3405,3.3014,0.005
3406,3.2934,-0.008
3407,3.2934,0
3408,3.3024,0.009
3409,3.3114,0.009
3410,3.3064,-0.005
3411,3.3004,-0.006
3412,3.2984,-0.002
3413,3.3194,0.021
3414,3.3274,0.008
3415,3.3354,0.008
3416,3.3304,-0.005
3417,3.3324,0.002
3418,3.3264,-0.006
3419,3.3034,-0.023
3420,3.3044,0.001
3421,3.3024,-0.002
3422,3.3044,0.002
3423,3.2954,-0.009
3424,3.3054,0.01
3425,3.3184,0.013
3426,3.3054,-0.013
3427,3.2994,-0.006
3428,3.2874,-0.012
3429,3.2964,0.009
3430,3.3004,0.004
3431,3.2954,-0.005
3432,3.2914,-0.004
3433,3.2804,-0.011
3434,3.2824,0.002
3435,3.2864,0.004
3436,3.2854,-0.001
3437,3.2954,0.01
3438,3.3024,0.007
3439,3.3004,-0.002
3440,3.3014,0.001
3441,3.3024,0.001
3442,3.2994,-0.003
3443,3.3244,0.025
3444,3.3304,0.006
3445,3.3474,0.017
3446,3.3444,-0.003
3447,3.3424,-0.002
3448,3.3394,-0.003
3449,3.3234,-0.016
3450,3.3324,0.009
3451,3.3314,-0.001
3452,3.3424,0.011
3453,3.3414,-0.001
3454,3.3604,0.019
3455,3.3644,0.004
3456,3.3824,0.018
3457,3.3804,-0.002
3458,3.3754,-0.005
3459,3.3854,0.01
3460,3.3694,-0.016
3461,3.3864,0.017
3462,3.3864,0
3463,3.3984,0.012
3464,3.3944,-0.004
3465,3.3874,-0.007
3466,3.3814,-0.006
3467,3.3834,0.002
3468,3.3934,0.01
3469,3.3704,-0.023
3470,3.3764,0.006
3471,3.3354,-0.041
3472,3.2354,-0.1
3473,3.2664,0.031
3474,3.2804,0.014
3475,3.3034,0.023
3476,3.3034,0
3477,3.3084,0.005
3478,3.3194,0.011
3479,3.3304,0.011
3480,3.3224,-0.008
3481,3.3314,0.009
3482,3.3594,0.028
3483,3.3534,-0.006
3484,3.3514,-0.002
3485,3.3804,0.029
3486,3.3824,0.002
3487,3.3774,-0.005
3488,3.3744,-0.003
3489,3.3584,-0.016
3490,3.3624,0.004
3491,3.3164,-0.046
3492,3.3574,0.041
3493,3.3644,0.007
3494,3.3714,0.007
3495,3.4004,0.029
3496,3.3794,-0.021
3497,3.3344,-0.045
3498,3.3614,0.027
3499,3.3444,-0.017
3500,3.3194,-0.025
3501,3.3014,-0.018
3502,3.2474,-0.054
3503,3.2424,-0.005
3504,3.2184,-0.024
3505,3.2034,-0.015
3506,3.2244,0.021
3507,3.1854,-0.039
3508,3.2144,0.029
3509,3.2454,0.031
3510,3.2374,-0.008
3511,3.2414,0.004
3512,3.2304,-0.011
3513,3.2334,0.003
3514,3.2302,-0.0032
3515,3.2492,0.019
3516,3.2423,-0.0069
3517,3.2693,0.027
3518,3.2637,-0.0056
3519,3.2676,0.0039
3520,3.2601,-0.0075
3521,3.2551,-0.005
3522,3.278,0.0229
3523,3.269,-0.009
3524,3.2707,0.0017
3525,3.2824,0.0117
3526,3.2869,0.0045
3527,3.2725,-0.0144
3528,3.2825,0.01
3529,3.2794,-0.0031
3530,3.2691,-0.0103
3531,3.2774,0.0083
3532,3.2857,0.0083
3533,3.2915,0.0058
3534,3.3061,0.0146
3535,3.3135,0.0074
3536,3.31,-0.0035
3537,3.3237,0.0137
3538,3.3226,-0.0011
3539,3.3227,0.0001
3540,3.3253,0.0026
3541,3.3115,-0.0138
3542,3.3078,-0.0037
3543,3.311,0.0032
3544,3.3216,0.0106
3545,3.3152,-0.0064
3546,3.3083,-0.0069
3547,3.28,-0.0283
3548,3.2817,0.0017
3549,3.2956,0.0139
3550,3.287,-0.0086
3551,3.2908,0.0038
3552,3.295,0.0042
3553,3.3283,0.0333
3554,3.3329,0.0046
3555,3.3332,0.0003
3556,3.3329,-0.0003
3557,3.3391,0.0062
3558,3.3459,0.0068
3559,3.3541,0.0082
3560,3.3529,-0.0012
3561,3.3403,-0.0126
3562,3.3418,0.0015
3563,3.3264,-0.0154
3564,3.3455,0.0191
3565,3.3467,0.0012
3566,3.3558,0.0091
3567,3.3738,0.018
3568,3.3753,0.0015
3569,3.3818,0.0065
3570,3.3894,0.0076
3571,3.38,-0.0094
3572,3.3987,0.0187
3573,3.4254,0.0267
3574,3.4537,0.0283
3575,3.4804,0.0267
3576,3.5599,0.0795
3577,3.5692,0.0093
3578,3.5936,0.0244
3579,3.615,0.0214
3580,3.589,-0.026
3581,3.6217,0.0327
3582,3.6075,-0.0142
3583,3.5897,-0.0178
3584,3.5174,-0.0723
3585,3.5274,0.01
3586,3.5705,0.0431
3587,3.5739,0.0034
3588,3.5819,0.008
3589,3.5823,0.0004
3590,3.5161,-0.0662
3591,3.5234,0.0073
3592,3.536,0.0126
3593,3.5717,0.0357
3594,3.5645,-0.0072
3595,3.577,0.0125
3596,3.6013,0.0243
3597,3.6025,0.0012
3598,3.6025,0
3599,3.5978,-0.0047
3600,3.5807,-0.0171
3601,3.5862,0.0055
3602,3.5724,-0.0138
3603,3.5617,-0.0107
3604,3.5579,-0.0038
3605,3.5808,0.0229
3606,3.6161,0.0353
3607,3.6153,-0.0008
3608,3.5923,-0.023
3609,3.5729,-0.0194
3610,3.5859,0.013
3611,3.5981,0.0122
3612,3.6001,0.002
3613,3.5822,-0.0179
3614,3.5903,0.0081
3615,3.6265,0.0362
3616,3.6175,-0.009
3617,3.6258,0.0083
3618,3.6264,0.0006
3619,3.6178,-0.0086
3620,3.6028,-0.015
3621,3.5705,-0.0323
3622,3.5785,0.008
3623,3.5433,-0.0352
3624,3.5425,-0.0008
3625,3.5569,0.0144
3626,3.5645,0.0076
3627,3.5764,0.0119
3628,3.5673,-0.0091
3629,3.5597,-0.0076
3630,3.5931,0.0334
3631,3.5785,-0.0146
3632,3.5608,-0.0177
3633,3.5661,0.0053
3634,3.5376,-0.0285
3635,3.5398,0.0022
3636,3.5437,0.0039
3637,3.547,0.0033
3638,3.5455,-0.0015
3639,3.5755,0.03
3640,3.6207,0.0452
3641,3.6259,0.0052
3642,3.6156,-0.0103
3643,3.6133,-0.0023
3644,3.611,-0.0023
3645,3.5994,-0.0116
3646,3.6116,0.0122
3647,3.6113,-0.0003
3648,3.607,-0.0043
3649,3.5882,-0.0188
3650,3.5795,-0.0087
3651,3.5821,0.0026
3652,3.5939,0.0118
3653,3.6052,0.0113
3654,3.5791,-0.0261
3655,3.5872,0.0081
3656,3.6053,0.0181
3657,3.6167,0.0114
3658,3.6397,0.023
3659,3.6399,0.0002
3660,3.6704,0.0305
3661,3.6615,-0.0089
3662,3.6459,-0.0156
3663,3.6473,0.0014
3664,3.6303,-0.017
3665,3.6453,0.015
3666,3.6422,-0.0031
3667,3.6412,-0.001
3668,3.6528,0.0116
3669,3.6577,0.0049
3670,3.6772,0.0195
3671,3.6675,-0.0097
3672,3.6473,-0.0202
3673,3.6501,0.0028
3674,3.6699,0.0198
3675,3.6635,-0.0064
3676,3.6975,0.034
3677,3.6976,0.0001
3678,3.6944,-0.0032
3679,3.6971,0.0027
3680,3.6833,-0.0138
3681,3.6793,-0.004
3682,3.6579,-0.0214
3683,3.6575,-0.0004
3684,3.641,-0.0165
3685,3.6548,0.0138
3686,3.6582,0.0034
3687,3.6611,0.0029
3688,3.6814,0.0203
3689,3.6758,-0.0056
3690,3.6908,0.015
3691,3.6647,-0.0261
3692,3.6782,0.0135
3693,3.6759,-0.0023
3694,3.6892,0.0133
3695,3.6964,0.0072
3696,3.6896,-0.0068
3697,3.7124,0.0228
3698,3.7437,0.0313
3699,3.7616,0.0179
3700,3.7936,0.032
3701,3.8092,0.0156
3702,3.8397,0.0305
3703,3.834,-0.0057
3704,3.8166,-0.0174
3705,3.866,0.0494
3706,3.8601,-0.0059
3707,3.8259,-0.0342
3708,3.822,-0.0039
3709,3.8412,0.0192
3710,3.8156,-0.0256
3711,3.8281,0.0125
3712,3.8562,0.0281
3713,3.8577,0.0015
3714,3.8752,0.0175
3715,3.8393,-0.0359
3716,3.8439,0.0046
3717,3.7962,-0.0477
3718,3.788,-0.0082
3719,3.809,0.021
3720,3.8355,0.0265
3721,3.8305,-0.005
3722,3.8267,-0.0038
3723,3.8297,0.003
3724,3.8553,0.0256
3725,3.8939,0.0386
3726,3.9324,0.0385
3727,3.9198,-0.0126
3728,3.9231,0.0033
3729,3.8658,-0.0573
3730,3.8601,-0.0057
3731,3.815,-0.0451
3732,3.8253,0.0103
3733,3.7832,-0.0421
3734,3.8088,0.0256
3735,3.7867,-0.0221
3736,3.8193,0.0326
3737,3.7649,-0.0544
3738,3.7594,-0.0055
3739,3.7013,-0.0581
3740,3.6665,-0.0348
3741,3.6768,0.0103
3742,3.7163,0.0395
3743,3.722,0.0057
3744,3.6866,-0.0354
3745,3.7006,0.014
3746,3.7075,0.0069
3747,3.7204,0.0129
3748,3.6777,-0.0427
3749,3.6937,0.016
3750,3.6785,-0.0152
3751,3.6531,-0.0254
3752,3.6525,-0.0006
3753,3.688,0.0355
3754,3.6908,0.0028
3755,3.706,0.0152
3756,3.6912,-0.0148
3757,3.7112,0.02
3758,3.7273,0.0161
3759,3.7204,-0.0069
3760,3.7088,-0.0116
3761,3.7115,0.0027
3762,3.6871,-0.0244
3763,3.6593,-0.0278
3764,3.6568,-0.0025
3765,3.6698,0.013
3766,3.6598,-0.01
3767,3.6654,0.0056
3768,3.7039,0.0385
3769,3.7027,-0.0012
3770,3.7076,0.0049
3771,3.7058,-0.0018
3772,3.7209,0.0151
3773,3.7025,-0.0184
3774,3.7068,0.0043
3775,3.7159,0.0091
3776,3.7305,0.0146
3777,3.7176,-0.0129
3778,3.6976,-0.02
3779,3.6768,-0.0208
3780,3.6756,-0.0012
3781,3.6853,0.0097
3782,3.6923,0.007
3783,3.6759,-0.0164
3784,3.7138,0.0379
3785,3.7376,0.0238
3786,3.7384,0.0008
3787,3.7339,-0.0045
3788,3.7386,0.0047
3789,3.7222,-0.0164
3790,3.729,0.0068
3791,3.7811,0.0521
3792,3.7817,0.0006
3793,3.7873,0.0056
3794,3.7821,-0.0052
3795,3.7857,0.0036
3796,3.7888,0.0031
3797,3.773,-0.0158
3798,3.7623,-0.0107
3799,3.7717,0.0094
3800,3.7705,-0.0012
3801,3.7561,-0.0144
3802,3.7581,0.002
3803,3.77,0.0119
3804,3.7562,-0.0138
3805,3.7371,-0.0191
3806,3.71,-0.0271
3807,3.7179,0.0079
3808,3.7189,0.001
3809,3.7151,-0.0038
3810,3.7254,0.0103
3811,3.734,0.0086
3812,3.737,0.003
3813,3.7652,0.0282
3814,3.7688,0.0036
3815,3.7503,-0.0185
3816,3.7619,0.0116
3817,3.7636,0.0017
3818,3.7158,-0.0478
3819,3.7172,0.0014
3820,3.7176,0.0004
3821,3.7366,0.019
3822,3.7205,-0.0161
3823,3.7159,-0.0046
3824,3.7366,0.0207
3825,3.7417,0.0051
3826,3.7228,-0.0189
3827,3.7451,0.0223
3828,3.7281,-0.017
3829,3.7341,0.006
3830,3.7327,-0.0014
3831,3.7448,0.0121
3832,3.7475,0.0027
3833,3.7275,-0.02
3834,3.6743,-0.0532
3835,3.6184,-0.0559
3836,3.6213,0.0029
3837,3.6507,0.0294
3838,3.6386,-0.0121
3839,3.6784,0.0398
3840,3.6786,0.0002
3841,3.693,0.0144
3842,3.6833,-0.0097
3843,3.6749,-0.0084
3844,3.6956,0.0207
3845,3.7142,0.0186
3846,3.7054,-0.0088
3847,3.6918,-0.0136
3848,3.6832,-0.0086
3849,3.6822,-0.001
3850,3.6487,-0.0335
3851,3.6674,0.0187
3852,3.657,-0.0104
3853,3.6277,-0.0293
3854,3.6505,0.0228
3855,3.6676,0.0171
3856,3.6714,0.0038
3857,3.64,-0.0314
3858,3.6483,0.0083
3859,3.6437,-0.0046
3860,3.6413,-0.0024
3861,3.6623,0.021
3862,3.6624,1E-04
3863,3.6539,-0.0085
3864,3.6833,0.0294
3865,3.7027,0.0194
3866,3.696,-0.0067
3867,3.6951,-0.0009
3868,3.7094,0.0143
3869,3.7022,-0.0072
3870,3.678,-0.0242
3871,3.6618,-0.0162
3872,3.6425,-0.0193
3873,3.6586,0.0161
3874,3.6476,-0.011
3875,3.6577,0.0101
3876,3.6566,-0.0011
3877,3.6655,0.0089
3878,3.6677,0.0022
3879,3.6515,-0.0162
3880,3.6619,0.0104
3881,3.6825,0.0206
3882,3.6844,0.0019
3883,3.6671,-0.0173
3884,3.6854,0.0183
3885,3.6769,-0.0085
3886,3.6833,0.0064
3887,3.6645,-0.0188
3888,3.6801,0.0156
3889,3.6761,-0.004
3890,3.6818,0.0057
3891,3.6925,0.0107
3892,3.6997,0.0072
3893,3.6942,-0.0055
3894,3.6731,-0.0211
3895,3.6622,-0.0109
3896,3.6768,0.0146
3897,3.6711,-0.0057
3898,3.6544,-0.0167
3899,3.6484,-0.006
3900,3.6639,0.0155
3901,3.6553,-0.0086
3902,3.6571,0.0018
3903,3.6567,-0.0004
3904,3.6484,-0.0083
3905,3.6737,0.0253
3906,3.6704,-0.0033
3907,3.6685,-0.0019
3908,3.6686,0.0001
3909,3.6694,0.0008
3910,3.6539,-0.0155
3911,3.671,0.0171
3912,3.6782,0.0072
3913,3.6785,0.0003
3914,3.6798,0.0013
3915,3.6732,-0.0066
3916,3.6614,-0.0118
3917,3.6586,-0.0028
3918,3.6523,-0.0063
3919,3.6561,0.0038
3920,3.6602,0.0041
3921,3.6747,0.0145
3922,3.6715,-0.0032
3923,3.6801,0.0086
3924,3.7042,0.0241
3925,3.7304,0.0262
3926,3.7237,-0.0067
3927,3.7329,0.0092
3928,3.7218,-0.0111
3929,3.7075,-0.0143
3930,3.7168,0.0093
3931,3.6909,-0.0259
3932,3.6667,-0.0242
3933,3.6777,0.011
3934,3.678,0.0003
3935,3.6891,0.0111
3936,3.6802,-0.0089
3937,3.6796,-0.0006
3938,3.6914,0.0118
3939,3.6679,-0.0235
3940,3.6803,0.0124
3941,3.6864,0.0061
3942,3.679,-0.0074
3943,3.6628,-0.0162
3944,3.6464,-0.0164
3945,3.6477,0.0013
3946,3.6547,0.007
3947,3.6397,-0.015
3948,3.6553,0.0156
3949,3.6294,-0.0259
3950,3.6162,-0.0132
3951,3.6294,0.0132
3952,3.6442,0.0148
3953,3.6335,-0.0107
3954,3.6475,0.014
3955,3.6332,-0.0143
3956,3.6356,0.0024
3957,3.6006,-0.035
3958,3.6115,0.0109
3959,3.5815,-0.03
3960,3.5632,-0.0183
3961,3.5858,0.0226
3962,3.5774,-0.0084
3963,3.5916,0.0142
3964,3.5875,-0.0041
3965,3.575,-0.0125
3966,3.5587,-0.0163
3967,3.5745,0.0158
3968,3.5803,0.0058
3969,3.584,0.0037
3970,3.5911,0.0071
3971,3.5855,-0.0056
3972,3.5659,-0.0196
3973,3.5819,0.016
3974,3.5513,-0.0306
3975,3.5657,0.0144
3976,3.5682,0.0025
3977,3.5806,0.0124
3978,3.5673,-0.0133
3979,3.5584,-0.0089
3980,3.5404,-0.018
3981,3.4935,-0.0469
3982,3.4649,-0.0286
3983,3.4518,-0.0131
3984,3.4737,0.0219
3985,3.4782,0.0045
3986,3.4352,-0.043
3987,3.3728,-0.0624
3988,3.4293,0.0565
3989,3.456,0.0267
3990,3.4654,0.0094
3991,3.4629,-0.0025
3992,3.4618,-0.0011
3993,3.4687,0.0069
3994,3.4605,-0.0082
3995,3.4354,-0.0251
3996,3.4266,-0.0088
3997,3.422,-0.0046
3998,3.4614,0.0394
3999,3.4511,-0.0103
4000,3.4685,0.0174
